{
  "data": [
    {
      "id": 12475627,
      "ast": 3,
      "blk": 0,
      "dreb": 3,
      "fg3_pct": 0.5,
      "fg3a": 10,
      "fg3m": 5,
      "fg_pct": 0.5625,
      "fga": 16,
      "fgm": 9,
      "ft_pct": 0,
      "fta": 0,
      "ftm": 0,
      "game": {
        "id": 857804,
        "date": "2022-12-18T00:00:00.000Z",
        "home_team_id": 12,
        "home_team_score": 106,
        "period": 4,
        "postseason": false,
        "season": 2022,
        "status": "Final",
        "time": "Final",
        "visitor_team_id": 20,
        "visitor_team_score": 109
      },
      "min": "28",
      "oreb": 0,
      "pf": 6,
      "player": {
        "id": 210,
        "first_name": "Buddy",
        "height_feet": 6,
        "height_inches": 4,
        "last_name": "Hield",
        "position": "G",
        "team_id": 12,
        "weight_pounds": 214
      },
      "pts": 23,
      "reb": 3,
      "stl": 1,
      "team": {
        "id": 12,
        "abbreviation": "IND",
        "city": "Indiana",
        "conference": "East",
        "division": "Central",
        "full_name": "Indiana Pacers",
        "name": "Pacers"
      },
      "turnover": 3
    },
    {
      "id": 12475628,
      "ast": 0,
      "blk": 0,
      "dreb": 7,
      "fg3_pct": 0.6666667,
      "fg3a": 6,
      "fg3m": 4,
      "fg_pct": 0.75,
      "fga": 12,
      "fgm": 9,
      "ft_pct": 1,
      "fta": 1,
      "ftm": 1,
      "game": {
        "id": 857804,
        "date": "2022-12-18T00:00:00.000Z",
        "home_team_id": 12,
        "home_team_score": 106,
        "period": 4,
        "postseason": false,
        "season": 2022,
        "status": "Final",
        "time": "Final",
        "visitor_team_id": 20,
        "visitor_team_score": 109
      },
      "min": "31",
      "oreb": 3,
      "pf": 4,
      "player": {
        "id": 3547250,
        "first_name": "Aaron",
        "height_feet": null,
        "height_inches": null,
        "last_name": "Nesmith",
        "position": "G-F",
        "team_id": 12,
        "weight_pounds": null
      },
      "pts": 23,
      "reb": 10,
      "stl": 1,
      "team": {
        "id": 12,
        "abbreviation": "IND",
        "city": "Indiana",
        "conference": "East",
        "division": "Central",
        "full_name": "Indiana Pacers",
        "name": "Pacers"
      },
      "turnover": 1
    },
    {
      "id": 12475629,
      "ast": 1,
      "blk": 1,
      "dreb": 5,
      "fg3_pct": 0.25,
      "fg3a": 8,
      "fg3m": 2,
      "fg_pct": 0.2,
      "fga": 10,
      "fgm": 2,
      "ft_pct": 0,
      "fta": 4,
      "ftm": 0,
      "game": {
        "id": 857804,
        "date": "2022-12-18T00:00:00.000Z",
        "home_team_id": 12,
        "home_team_score": 106,
        "period": 4,
        "postseason": false,
        "season": 2022,
        "status": "Final",
        "time": "Final",
        "visitor_team_id": 20,
        "visitor_team_score": 109
      },
      "min": "33",
      "oreb": 3,
      "pf": 3,
      "player": {
        "id": 452,
        "first_name": "Myles",
        "height_feet": 6,
        "height_inches": 11,
        "last_name": "Turner",
        "position": "C-F",
        "team_id": 12,
        "weight_pounds": 250
      },
      "pts": 6,
      "reb": 8,
      "stl": 1,
      "team": {
        "id": 12,
        "abbreviation": "IND",
        "city": "Indiana",
        "conference": "East",
        "division": "Central",
        "full_name": "Indiana Pacers",
        "name": "Pacers"
      },
      "turnover": 0
    },
    {
      "id": 12475630,
      "ast": 1,
      "blk": 0,
      "dreb": 2,
      "fg3_pct": 0,
      "fg3a": 3,
      "fg3m": 0,
      "fg_pct": 0.4,
      "fga": 5,
      "fgm": 2,
      "ft_pct": 0,
      "fta": 0,
      "ftm": 0,
      "game": {
        "id": 857804,
        "date": "2022-12-18T00:00:00.000Z",
        "home_team_id": 12,
        "home_team_score": 106,
        "period": 4,
        "postseason": false,
        "season": 2022,
        "status": "Final",
        "time": "Final",
        "visitor_team_id": 20,
        "visitor_team_score": 109
      },
      "min": "27",
      "oreb": 0,
      "pf": 5,
      "player": {
        "id": 38017507,
        "first_name": "Andrew",
        "height_feet": null,
        "height_inches": null,
        "last_name": "Nembhard",
        "position": "G-F",
        "team_id": 12,
        "weight_pounds": null
      },
      "pts": 4,
      "reb": 2,
      "stl": 1,
      "team": {
        "id": 12,
        "abbreviation": "IND",
        "city": "Indiana",
        "conference": "East",
        "division": "Central",
        "full_name": "Indiana Pacers",
        "name": "Pacers"
      },
      "turnover": 1
    },
    {
      "id": 12475631,
      "ast": 10,
      "blk": 0,
      "dreb": 1,
      "fg3_pct": 0.33333334,
      "fg3a": 6,
      "fg3m": 2,
      "fg_pct": 0.3125,
      "fga": 16,
      "fgm": 5,
      "ft_pct": 1,
      "fta": 3,
      "ftm": 3,
      "game": {
        "id": 857804,
        "date": "2022-12-18T00:00:00.000Z",
        "home_team_id": 12,
        "home_team_score": 106,
        "period": 4,
        "postseason": false,
        "season": 2022,
        "status": "Final",
        "time": "Final",
        "visitor_team_id": 20,
        "visitor_team_score": 109
      },
      "min": "32",
      "oreb": 0,
      "pf": 3,
      "player": {
        "id": 3547245,
        "first_name": "Tyrese",
        "height_feet": null,
        "height_inches": null,
        "last_name": "Haliburton",
        "position": "G",
        "team_id": 12,
        "weight_pounds": null
      },
      "pts": 15,
      "reb": 1,
      "stl": 0,
      "team": {
        "id": 12,
        "abbreviation": "IND",
        "city": "Indiana",
        "conference": "East",
        "division": "Central",
        "full_name": "Indiana Pacers",
        "name": "Pacers"
      },
      "turnover": 2
    },
    {
      "id": 12475632,
      "ast": 0,
      "blk": 0,
      "dreb": 0,
      "fg3_pct": 0,
      "fg3a": 0,
      "fg3m": 0,
      "fg_pct": 0,
      "fga": 0,
      "fgm": 0,
      "ft_pct": 0,
      "fta": 0,
      "ftm": 0,
      "game": {
        "id": 857804,
        "date": "2022-12-18T00:00:00.000Z",
        "home_team_id": 12,
        "home_team_score": 106,
        "period": 4,
        "postseason": false,
        "season": 2022,
        "status": "Final",
        "time": "Final",
        "visitor_team_id": 20,
        "visitor_team_score": 109
      },
      "min": "00",
      "oreb": 0,
      "pf": 0,
      "player": {
        "id": 666442,
        "first_name": "Goga",
        "height_feet": null,
        "height_inches": null,
        "last_name": "Bitadze",
        "position": "C",
        "team_id": 12,
        "weight_pounds": null
      },
      "pts": 0,
      "reb": 0,
      "stl": 0,
      "team": {
        "id": 12,
        "abbreviation": "IND",
        "city": "Indiana",
        "conference": "East",
        "division": "Central",
        "full_name": "Indiana Pacers",
        "name": "Pacers"
      },
      "turnover": 0
    },
    {
      "id": 12475633,
      "ast": 0,
      "blk": 0,
      "dreb": 0,
      "fg3_pct": 0,
      "fg3a": 0,
      "fg3m": 0,
      "fg_pct": 0,
      "fga": 0,
      "fgm": 0,
      "ft_pct": 0.5,
      "fta": 2,
      "ftm": 1,
      "game": {
        "id": 857804,
        "date": "2022-12-18T00:00:00.000Z",
        "home_team_id": 12,
        "home_team_score": 106,
        "period": 4,
        "postseason": false,
        "season": 2022,
        "status": "Final",
        "time": "Final",
        "visitor_team_id": 20,
        "visitor_team_score": 109
      },
      "min": "03",
      "oreb": 0,
      "pf": 1,
      "player": {
        "id": 666468,
        "first_name": "Oshae",
        "height_feet": null,
        "height_inches": null,
        "last_name": "Brissett",
        "position": "F",
        "team_id": 12,
        "weight_pounds": null
      },
      "pts": 1,
      "reb": 0,
      "stl": 0,
      "team": {
        "id": 12,
        "abbreviation": "IND",
        "city": "Indiana",
        "conference": "East",
        "division": "Central",
        "full_name": "Indiana Pacers",
        "name": "Pacers"
      },
      "turnover": 0
    },
    {
      "id": 12475634,
      "ast": 0,
      "blk": 0,
      "dreb": 2,
      "fg3_pct": 0,
      "fg3a": 2,
      "fg3m": 0,
      "fg_pct": 0.4,
      "fga": 5,
      "fgm": 2,
      "ft_pct": 0.4,
      "fta": 5,
      "ftm": 2,
      "game": {
        "id": 857804,
        "date": "2022-12-18T00:00:00.000Z",
        "home_team_id": 12,
        "home_team_score": 106,
        "period": 4,
        "postseason": false,
        "season": 2022,
        "status": "Final",
        "time": "Final",
        "visitor_team_id": 20,
        "visitor_team_score": 109
      },
      "min": "15",
      "oreb": 0,
      "pf": 2,
      "player": {
        "id": 17896030,
        "first_name": "Chris",
        "height_feet": null,
        "height_inches": null,
        "last_name": "Duarte",
        "position": "G",
        "team_id": 12,
        "weight_pounds": null
      },
      "pts": 6,
      "reb": 2,
      "stl": 0,
      "team": {
        "id": 12,
        "abbreviation": "IND",
        "city": "Indiana",
        "conference": "East",
        "division": "Central",
        "full_name": "Indiana Pacers",
        "name": "Pacers"
      },
      "turnover": 1
    },
    {
      "id": 12475635,
      "ast": 0,
      "blk": 0,
      "dreb": 5,
      "fg3_pct": 0,
      "fg3a": 0,
      "fg3m": 0,
      "fg_pct": 1,
      "fga": 1,
      "fgm": 1,
      "ft_pct": 0,
      "fta": 0,
      "ftm": 0,
      "game": {
        "id": 857804,
        "date": "2022-12-18T00:00:00.000Z",
        "home_team_id": 12,
        "home_team_score": 106,
        "period": 4,
        "postseason": false,
        "season": 2022,
        "status": "Final",
        "time": "Final",
        "visitor_team_id": 20,
        "visitor_team_score": 109
      },
      "min": "15",
      "oreb": 3,
      "pf": 1,
      "player": {
        "id": 17896035,
        "first_name": "Isaiah",
        "height_feet": null,
        "height_inches": null,
        "last_name": "Jackson",
        "position": "F",
        "team_id": 12,
        "weight_pounds": null
      },
      "pts": 2,
      "reb": 8,
      "stl": 0,
      "team": {
        "id": 12,
        "abbreviation": "IND",
        "city": "Indiana",
        "conference": "East",
        "division": "Central",
        "full_name": "Indiana Pacers",
        "name": "Pacers"
      },
      "turnover": 2
    },
    {
      "id": 12475636,
      "ast": 0,
      "blk": 0,
      "dreb": 0,
      "fg3_pct": 0,
      "fg3a": 0,
      "fg3m": 0,
      "fg_pct": 0,
      "fga": 0,
      "fgm": 0,
      "ft_pct": 0,
      "fta": 0,
      "ftm": 0,
      "game": {
        "id": 857804,
        "date": "2022-12-18T00:00:00.000Z",
        "home_team_id": 12,
        "home_team_score": 106,
        "period": 4,
        "postseason": false,
        "season": 2022,
        "status": "Final",
        "time": "Final",
        "visitor_team_id": 20,
        "visitor_team_score": 109
      },
      "min": "00",
      "oreb": 0,
      "pf": 0,
      "player": {
        "id": 242,
        "first_name": "James",
        "height_feet": 6,
        "height_inches": 8,
        "last_name": "Johnson",
        "position": "F",
        "team_id": 12,
        "weight_pounds": 240
      },
      "pts": 0,
      "reb": 0,
      "stl": 0,
      "team": {
        "id": 12,
        "abbreviation": "IND",
        "city": "Indiana",
        "conference": "East",
        "division": "Central",
        "full_name": "Indiana Pacers",
        "name": "Pacers"
      },
      "turnover": 0
    },
    {
      "id": 12475637,
      "ast": 0,
      "blk": 1,
      "dreb": 5,
      "fg3_pct": 0,
      "fg3a": 2,
      "fg3m": 0,
      "fg_pct": 0.25,
      "fga": 16,
      "fgm": 4,
      "ft_pct": 1,
      "fta": 7,
      "ftm": 7,
      "game": {
        "id": 857804,
        "date": "2022-12-18T00:00:00.000Z",
        "home_team_id": 12,
        "home_team_score": 106,
        "period": 4,
        "postseason": false,
        "season": 2022,
        "status": "Final",
        "time": "Final",
        "visitor_team_id": 20,
        "visitor_team_score": 109
      },
      "min": "29",
      "oreb": 1,
      "pf": 1,
      "player": {
        "id": 38017686,
        "first_name": "Bennedict",
        "height_feet": null,
        "height_inches": null,
        "last_name": "Mathurin",
        "position": "G-F",
        "team_id": 12,
        "weight_pounds": null
      },
      "pts": 15,
      "reb": 6,
      "stl": 0,
      "team": {
        "id": 12,
        "abbreviation": "IND",
        "city": "Indiana",
        "conference": "East",
        "division": "Central",
        "full_name": "Indiana Pacers",
        "name": "Pacers"
      },
      "turnover": 2
    },
    {
      "id": 12475638,
      "ast": 5,
      "blk": 0,
      "dreb": 1,
      "fg3_pct": 0,
      "fg3a": 0,
      "fg3m": 0,
      "fg_pct": 0.25,
      "fga": 4,
      "fgm": 1,
      "ft_pct": 0,
      "fta": 0,
      "ftm": 0,
      "game": {
        "id": 857804,
        "date": "2022-12-18T00:00:00.000Z",
        "home_team_id": 12,
        "home_team_score": 106,
        "period": 4,
        "postseason": false,
        "season": 2022,
        "status": "Final",
        "time": "Final",
        "visitor_team_id": 20,
        "visitor_team_score": 109
      },
      "min": "16",
      "oreb": 1,
      "pf": 0,
      "player": {
        "id": 304,
        "first_name": "T.J.",
        "height_feet": 6,
        "height_inches": 2,
        "last_name": "McConnell",
        "position": "G",
        "team_id": 12,
        "weight_pounds": 190
      },
      "pts": 2,
      "reb": 2,
      "stl": 0,
      "team": {
        "id": 12,
        "abbreviation": "IND",
        "city": "Indiana",
        "conference": "East",
        "division": "Central",
        "full_name": "Indiana Pacers",
        "name": "Pacers"
      },
      "turnover": 1
    },
    {
      "id": 12475639,
      "ast": 0,
      "blk": 1,
      "dreb": 1,
      "fg3_pct": 0,
      "fg3a": 1,
      "fg3m": 0,
      "fg_pct": 0.8,
      "fga": 5,
      "fgm": 4,
      "ft_pct": 1,
      "fta": 1,
      "ftm": 1,
      "game": {
        "id": 857804,
        "date": "2022-12-18T00:00:00.000Z",
        "home_team_id": 12,
        "home_team_score": 106,
        "period": 4,
        "postseason": false,
        "season": 2022,
        "status": "Final",
        "time": "Final",
        "visitor_team_id": 20,
        "visitor_team_score": 109
      },
      "min": "11",
      "oreb": 1,
      "pf": 2,
      "player": {
        "id": 3547264,
        "first_name": "Jalen",
        "height_feet": null,
        "height_inches": null,
        "last_name": "Smith",
        "position": "F-C",
        "team_id": 12,
        "weight_pounds": null
      },
      "pts": 9,
      "reb": 2,
      "stl": 1,
      "team": {
        "id": 12,
        "abbreviation": "IND",
        "city": "Indiana",
        "conference": "East",
        "division": "Central",
        "full_name": "Indiana Pacers",
        "name": "Pacers"
      },
      "turnover": 1
    },
    {
      "id": 12475640,
      "ast": 0,
      "blk": 0,
      "dreb": 0,
      "fg3_pct": 0,
      "fg3a": 0,
      "fg3m": 0,
      "fg_pct": 0,
      "fga": 0,
      "fgm": 0,
      "ft_pct": 0,
      "fta": 0,
      "ftm": 0,
      "game": {
        "id": 857804,
        "date": "2022-12-18T00:00:00.000Z",
        "home_team_id": 12,
        "home_team_score": 106,
        "period": 4,
        "postseason": false,
        "season": 2022,
        "status": "Final",
        "time": "Final",
        "visitor_team_id": 20,
        "visitor_team_score": 109
      },
      "min": "00",
      "oreb": 0,
      "pf": 0,
      "player": {
        "id": 17896116,
        "first_name": "Terry",
        "height_feet": null,
        "height_inches": null,
        "last_name": "Taylor",
        "position": "G",
        "team_id": 12,
        "weight_pounds": null
      },
      "pts": 0,
      "reb": 0,
      "stl": 0,
      "team": {
        "id": 12,
        "abbreviation": "IND",
        "city": "Indiana",
        "conference": "East",
        "division": "Central",
        "full_name": "Indiana Pacers",
        "name": "Pacers"
      },
      "turnover": 0
    },
    {
      "id": 12475641,
      "ast": 0,
      "blk": 0,
      "dreb": 0,
      "fg3_pct": 0,
      "fg3a": 0,
      "fg3m": 0,
      "fg_pct": 0,
      "fga": 0,
      "fgm": 0,
      "ft_pct": 0,
      "fta": 0,
      "ftm": 0,
      "game": {
        "id": 857804,
        "date": "2022-12-18T00:00:00.000Z",
        "home_team_id": 12,
        "home_team_score": 106,
        "period": 4,
        "postseason": false,
        "season": 2022,
        "status": "Final",
        "time": "Final",
        "visitor_team_id": 20,
        "visitor_team_score": 109
      },
      "min": "00",
      "oreb": 0,
      "pf": 0,
      "player": {
        "id": 38017701,
        "first_name": "Kendall",
        "height_feet": null,
        "height_inches": null,
        "last_name": "Brown",
        "position": "G",
        "team_id": 12,
        "weight_pounds": null
      },
      "pts": 0,
      "reb": 0,
      "stl": 0,
      "team": {
        "id": 12,
        "abbreviation": "IND",
        "city": "Indiana",
        "conference": "East",
        "division": "Central",
        "full_name": "Indiana Pacers",
        "name": "Pacers"
      },
      "turnover": 0
    },
    {
      "id": 12475642,
      "ast": 0,
      "blk": 0,
      "dreb": 0,
      "fg3_pct": 0,
      "fg3a": 0,
      "fg3m": 0,
      "fg_pct": 0,
      "fga": 0,
      "fgm": 0,
      "ft_pct": 0,
      "fta": 0,
      "ftm": 0,
      "game": {
        "id": 857804,
        "date": "2022-12-18T00:00:00.000Z",
        "home_team_id": 12,
        "home_team_score": 106,
        "period": 4,
        "postseason": false,
        "season": 2022,
        "status": "Final",
        "time": "Final",
        "visitor_team_id": 20,
        "visitor_team_score": 109
      },
      "min": "00",
      "oreb": 0,
      "pf": 0,
      "player": {
        "id": 17553983,
        "first_name": "Trevelin",
        "height_feet": null,
        "height_inches": null,
        "last_name": "Queen",
        "position": "G",
        "team_id": 12,
        "weight_pounds": null
      },
      "pts": 0,
      "reb": 0,
      "stl": 0,
      "team": {
        "id": 12,
        "abbreviation": "IND",
        "city": "Indiana",
        "conference": "East",
        "division": "Central",
        "full_name": "Indiana Pacers",
        "name": "Pacers"
      },
      "turnover": 0
    },
    {
      "id": 12475643,
      "ast": 0,
      "blk": 0,
      "dreb": 0,
      "fg3_pct": 0,
      "fg3a": 0,
      "fg3m": 0,
      "fg_pct": 0,
      "fga": 0,
      "fgm": 0,
      "ft_pct": 0,
      "fta": 0,
      "ftm": 0,
      "game": {
        "id": 857804,
        "date": "2022-12-18T00:00:00.000Z",
        "home_team_id": 12,
        "home_team_score": 106,
        "period": 4,
        "postseason": false,
        "season": 2022,
        "status": "Final",
        "time": "Final",
        "visitor_team_id": 20,
        "visitor_team_score": 109
      },
      "min": "00",
      "oreb": 0,
      "pf": 0,
      "player": {
        "id": 439,
        "first_name": "Daniel",
        "height_feet": 6,
        "height_inches": 8,
        "last_name": "Theis",
        "position": "F",
        "team_id": 12,
        "weight_pounds": 243
      },
      "pts": 0,
      "reb": 0,
      "stl": 0,
      "team": {
        "id": 12,
        "abbreviation": "IND",
        "city": "Indiana",
        "conference": "East",
        "division": "Central",
        "full_name": "Indiana Pacers",
        "name": "Pacers"
      },
      "turnover": 0
    },
    {
      "id": 12475644,
      "ast": 0,
      "blk": 1,
      "dreb": 2,
      "fg3_pct": 0,
      "fg3a": 5,
      "fg3m": 0,
      "fg_pct": 0.5263158,
      "fga": 19,
      "fgm": 10,
      "ft_pct": 0.8,
      "fta": 5,
      "ftm": 4,
      "game": {
        "id": 857804,
        "date": "2022-12-18T00:00:00.000Z",
        "home_team_id": 12,
        "home_team_score": 106,
        "period": 4,
        "postseason": false,
        "season": 2022,
        "status": "Final",
        "time": "Final",
        "visitor_team_id": 20,
        "visitor_team_score": 109
      },
      "min": "42",
      "oreb": 2,
      "pf": 2,
      "player": {
        "id": 666423,
        "first_name": "RJ",
        "height_feet": null,
        "height_inches": null,
        "last_name": "Barrett",
        "position": "F-G",
        "team_id": 20,
        "weight_pounds": null
      },
      "pts": 24,
      "reb": 4,
      "stl": 0,
      "team": {
        "id": 20,
        "abbreviation": "NYK",
        "city": "New York",
        "conference": "East",
        "division": "Atlantic",
        "full_name": "New York Knicks",
        "name": "Knicks"
      },
      "turnover": 5
    },
    {
      "id": 12475645,
      "ast": 3,
      "blk": 0,
      "dreb": 11,
      "fg3_pct": 0.25,
      "fg3a": 8,
      "fg3m": 2,
      "fg_pct": 0.4117647,
      "fga": 17,
      "fgm": 7,
      "ft_pct": 0.75,
      "fta": 12,
      "ftm": 9,
      "game": {
        "id": 857804,
        "date": "2022-12-18T00:00:00.000Z",
        "home_team_id": 12,
        "home_team_score": 106,
        "period": 4,
        "postseason": false,
        "season": 2022,
        "status": "Final",
        "time": "Final",
        "visitor_team_id": 20,
        "visitor_team_score": 109
      },
      "min": "39",
      "oreb": 3,
      "pf": 4,
      "player": {
        "id": 387,
        "first_name": "Julius",
        "height_feet": 6,
        "height_inches": 9,
        "last_name": "Randle",
        "position": "F",
        "team_id": 20,
        "weight_pounds": 250
      },
      "pts": 25,
      "reb": 14,
      "stl": 0,
      "team": {
        "id": 20,
        "abbreviation": "NYK",
        "city": "New York",
        "conference": "East",
        "division": "Atlantic",
        "full_name": "New York Knicks",
        "name": "Knicks"
      },
      "turnover": 3
    },
    {
      "id": 12475646,
      "ast": 2,
      "blk": 4,
      "dreb": 8,
      "fg3_pct": 0,
      "fg3a": 0,
      "fg3m": 0,
      "fg_pct": 0.8,
      "fga": 5,
      "fgm": 4,
      "ft_pct": 0.5,
      "fta": 4,
      "ftm": 2,
      "game": {
        "id": 857804,
        "date": "2022-12-18T00:00:00.000Z",
        "home_team_id": 12,
        "home_team_score": 106,
        "period": 4,
        "postseason": false,
        "season": 2022,
        "status": "Final",
        "time": "Final",
        "visitor_team_id": 20,
        "visitor_team_score": 109
      },
      "min": "32",
      "oreb": 5,
      "pf": 3,
      "player": {
        "id": 399,
        "first_name": "Mitchell",
        "height_feet": 7,
        "height_inches": 1,
        "last_name": "Robinson",
        "position": "C",
        "team_id": 20,
        "weight_pounds": 240
      },
      "pts": 10,
      "reb": 13,
      "stl": 1,
      "team": {
        "id": 20,
        "abbreviation": "NYK",
        "city": "New York",
        "conference": "East",
        "division": "Atlantic",
        "full_name": "New York Knicks",
        "name": "Knicks"
      },
      "turnover": 1
    },
    {
      "id": 12475647,
      "ast": 2,
      "blk": 0,
      "dreb": 2,
      "fg3_pct": 1,
      "fg3a": 3,
      "fg3m": 3,
      "fg_pct": 0.5,
      "fga": 22,
      "fgm": 11,
      "ft_pct": 1,
      "fta": 5,
      "ftm": 5,
      "game": {
        "id": 857804,
        "date": "2022-12-18T00:00:00.000Z",
        "home_team_id": 12,
        "home_team_score": 106,
        "period": 4,
        "postseason": false,
        "season": 2022,
        "status": "Final",
        "time": "Final",
        "visitor_team_id": 20,
        "visitor_team_score": 109
      },
      "min": "35",
      "oreb": 0,
      "pf": 5,
      "player": {
        "id": 73,
        "first_name": "Jalen",
        "height_feet": 6,
        "height_inches": 3,
        "last_name": "Brunson",
        "position": "G",
        "team_id": 20,
        "weight_pounds": 190
      },
      "pts": 30,
      "reb": 2,
      "stl": 2,
      "team": {
        "id": 20,
        "abbreviation": "NYK",
        "city": "New York",
        "conference": "East",
        "division": "Atlantic",
        "full_name": "New York Knicks",
        "name": "Knicks"
      },
      "turnover": 4
    },
    {
      "id": 12475650,
      "ast": 0,
      "blk": 0,
      "dreb": 0,
      "fg3_pct": 0,
      "fg3a": 0,
      "fg3m": 0,
      "fg_pct": 0,
      "fga": 0,
      "fgm": 0,
      "ft_pct": 0,
      "fta": 0,
      "ftm": 0,
      "game": {
        "id": 857804,
        "date": "2022-12-18T00:00:00.000Z",
        "home_team_id": 12,
        "home_team_score": 106,
        "period": 4,
        "postseason": false,
        "season": 2022,
        "status": "Final",
        "time": "Final",
        "visitor_team_id": 20,
        "visitor_team_score": 109
      },
      "min": "00",
      "oreb": 0,
      "pf": 0,
      "player": {
        "id": 160,
        "first_name": "Evan",
        "height_feet": 6,
        "height_inches": 7,
        "last_name": "Fournier",
        "position": "G-F",
        "team_id": 20,
        "weight_pounds": 205
      },
      "pts": 0,
      "reb": 0,
      "stl": 0,
      "team": {
        "id": 20,
        "abbreviation": "NYK",
        "city": "New York",
        "conference": "East",
        "division": "Atlantic",
        "full_name": "New York Knicks",
        "name": "Knicks"
      },
      "turnover": 0
    },
    {
      "id": 12475651,
      "ast": 2,
      "blk": 2,
      "dreb": 4,
      "fg3_pct": 0,
      "fg3a": 1,
      "fg3m": 0,
      "fg_pct": 0.5,
      "fga": 2,
      "fgm": 1,
      "ft_pct": 0,
      "fta": 0,
      "ftm": 0,
      "game": {
        "id": 857804,
        "date": "2022-12-18T00:00:00.000Z",
        "home_team_id": 12,
        "home_team_score": 106,
        "period": 4,
        "postseason": false,
        "season": 2022,
        "status": "Final",
        "time": "Final",
        "visitor_team_id": 20,
        "visitor_team_score": 109
      },
      "min": "16",
      "oreb": 2,
      "pf": 3,
      "player": {
        "id": 201,
        "first_name": "Isaiah",
        "height_feet": 7,
        "height_inches": 0,
        "last_name": "Hartenstein",
        "position": "F-C",
        "team_id": 20,
        "weight_pounds": 249
      },
      "pts": 2,
      "reb": 6,
      "stl": 0,
      "team": {
        "id": 20,
        "abbreviation": "NYK",
        "city": "New York",
        "conference": "East",
        "division": "Atlantic",
        "full_name": "New York Knicks",
        "name": "Knicks"
      },
      "turnover": 0
    },
    {
      "id": 12475652,
      "ast": 0,
      "blk": 0,
      "dreb": 0,
      "fg3_pct": 0.25,
      "fg3a": 4,
      "fg3m": 1,
      "fg_pct": 0.25,
      "fga": 4,
      "fgm": 1,
      "ft_pct": 0,
      "fta": 0,
      "ftm": 0,
      "game": {
        "id": 857804,
        "date": "2022-12-18T00:00:00.000Z",
        "home_team_id": 12,
        "home_team_score": 106,
        "period": 4,
        "postseason": false,
        "season": 2022,
        "status": "Final",
        "time": "Final",
        "visitor_team_id": 20,
        "visitor_team_score": 109
      },
      "min": "13",
      "oreb": 1,
      "pf": 0,
      "player": {
        "id": 17896033,
        "first_name": "Miles",
        "height_feet": null,
        "height_inches": null,
        "last_name": "McBride",
        "position": "G",
        "team_id": 20,
        "weight_pounds": null
      },
      "pts": 3,
      "reb": 1,
      "stl": 1,
      "team": {
        "id": 20,
        "abbreviation": "NYK",
        "city": "New York",
        "conference": "East",
        "division": "Atlantic",
        "full_name": "New York Knicks",
        "name": "Knicks"
      },
      "turnover": 0
    },
    {
      "id": 12475653,
      "ast": 0,
      "blk": 0,
      "dreb": 0,
      "fg3_pct": 0,
      "fg3a": 0,
      "fg3m": 0,
      "fg_pct": 0,
      "fga": 0,
      "fgm": 0,
      "ft_pct": 0,
      "fta": 0,
      "ftm": 0,
      "game": {
        "id": 857804,
        "date": "2022-12-18T00:00:00.000Z",
        "home_team_id": 12,
        "home_team_score": 106,
        "period": 4,
        "postseason": false,
        "season": 2022,
        "status": "Final",
        "time": "Final",
        "visitor_team_id": 20,
        "visitor_team_score": 109
      },
      "min": "00",
      "oreb": 0,
      "pf": 0,
      "player": {
        "id": 338,
        "first_name": "Svi",
        "height_feet": 6,
        "height_inches": 8,
        "last_name": "Mykhailiuk",
        "position": "G",
        "team_id": 20,
        "weight_pounds": 205
      },
      "pts": 0,
      "reb": 0,
      "stl": 0,
      "team": {
        "id": 20,
        "abbreviation": "NYK",
        "city": "New York",
        "conference": "East",
        "division": "Atlantic",
        "full_name": "New York Knicks",
        "name": "Knicks"
      },
      "turnover": 0
    }
  ],
  "meta": {
    "total_pages": 2,
    "current_page": 1,
    "next_page": 2,
    "per_page": 25,
    "total_count": 34
  }
}
